[
  {
    "title": "Насаат Медиа АРТ телеграм",
    "url": "https://t.me/nasaat_media_art"
  },
  {
    "title": "Намаз убактылары Сайт",
    "url": "http://nasaatmedia.kg/namaz-ubaktysy/"
  },
  {
    "title": "Facebook Насаат Медиа",
    "url": "https://fb.com/NasaatMedia"
  },
  {
    "title": "Vkontake Насаат Медиа",
    "url": "https://vk.com/nasaatmedia"
  },
  {
    "title": "Одноклассники Насаат Медиа",
    "url": "https://ok.ru/nasaatmedia"
  },
  {
    "title": "Телеграм Насаат Медиа",
    "url": "https://t.me/nasaatmedia"
  }
]